module user-management

go 1.18

require (
	github.com/gin-contrib/sse v0.1.0 // indirect
	github.com/gin-gonic/gin v1.8.1 // indirect
	github.com/go-playground/locales v0.14.0 // indirect
	github.com/go-playground/universal-translator v0.18.0 // indirect
	github.com/go-playground/validator/v10 v10.11.0 // indirect
	github.com/goccy/go-json v0.9.8 // indirect
	github.com/jackc/chunkreader/v2 v2.0.1 // indirect
	github.com/jackc/pgconn v1.12.1 // indirect
	github.com/jackc/pgio v1.0.0 // indirect
	github.com/jackc/pgpassfile v1.0.0 // indirect
	github.com/jackc/pgproto3/v2 v2.3.0 // indirect
	github.com/jackc/pgservicefile v0.0.0-20200714003250-2b9c44734f2b // indirect
	github.com/jackc/pgtype v1.11.0 // indirect
	github.com/jackc/pgx/v4 v4.16.1 // indirect
	github.com/jinzhu/inflection v1.0.0 // indirect
	github.com/jinzhu/now v1.1.5 // indirect
	github.com/json-iterator/go v1.1.12 // indirect
	github.com/leodido/go-urn v1.2.1 // indirect
	github.com/mattn/go-isatty v0.0.14 // indirect
	github.com/modern-go/concurrent v0.0.0-20180306012644-bacd9c7ef1dd // indirect
	github.com/modern-go/reflect2 v1.0.2 // indirect
	github.com/pelletier/go-toml/v2 v2.0.2 // indirect
	github.com/ugorji/go/codec v1.2.7 // indirect
	golang.org/x/crypto v0.0.0-20220622213112-05595931fe9d // indirect
	golang.org/x/net v0.0.0-20220708220712-1185a9018129 // indirect
	golang.org/x/sys v0.0.0-20220708085239-5a0f0661e09d // indirect
	golang.org/x/text v0.3.7 // indirect
	google.golang.org/protobuf v1.28.0 // indirect
	gopkg.in/yaml.v2 v2.4.0 // indirect
	gorm.io/driver/postgres v1.3.8 // indirect
	gorm.io/gorm v1.23.8 // indirect
)
